module gitlab.com/spbstu-2023-2025/spbstu-2024-sqmp-kup-sfss-service

go 1.19

require (
	github.com/golang/mock v1.6.0
	github.com/gorilla/mux v1.8.1
	github.com/stretchr/testify v1.8.3
	gopkg.in/yaml.v3 v3.0.1
)

require (
	github.com/davecgh/go-spew v1.1.1 // indirect
	github.com/kr/text v0.2.0 // indirect
	github.com/niemeyer/pretty v0.0.0-20200227124842-a10e7caefd8e // indirect
	github.com/pmezard/go-difflib v1.0.0 // indirect
	gopkg.in/check.v1 v1.0.0-20200227125254-8fa46927fb4f // indirect
)
